# Blender v2.76 (sub 0) OBJ File: ''
# www.blender.org
o Cube
v 1.000000 -1.000000 -1.000000
v 1.000000 -1.000000 1.000000
v -1.000000 -1.000000 1.000000
v -1.000000 -1.000000 -1.000000
v 1.000000 1.000000 -0.999999
v 0.999999 1.000000 1.000001
v -1.000000 1.000000 1.000000
v -1.000000 1.000000 -1.000000
vt 0.248416 0.665829
vt 0.248416 0.331818
vt 0.498925 0.331818
vt 0.749433 0.331818
vt 0.999942 0.331818
vt 0.999942 0.665829
vt 0.498925 0.999841
vt 0.248416 0.999841
vt -0.002093 0.665829
vt -0.002093 0.331818
vt 0.248416 -0.002193
vt 0.498925 -0.002193
vt 0.498925 0.665829
vt 0.749434 0.665829
s off
f 2/1 3/2 4/3
f 8/4 7/5 6/6
f 5/7 6/8 2/1
f 6/9 7/10 3/2
f 3/2 7/11 8/12
f 1/13 4/3 8/4
f 1/13 2/1 4/3
f 5/14 8/4 6/6
f 1/13 5/7 2/1
f 2/1 6/9 3/2
f 4/3 3/2 8/12
f 5/14 1/13 8/4
